<?xml version="1.0" encoding="UTF-8" standalone="no"?>
<svg width="133px" height="33px" viewBox="0 0 133 33" version="1.1" xmlns="http://www.w3.org/2000/svg" xmlns:xlink="http://www.w3.org/1999/xlink">
    <!-- Generator: Sketch 50.2 (55047) - http://www.bohemiancoding.com/sketch -->
    <title>Header Logo</title>
    <desc>Created with Sketch.</desc>
    <defs></defs>
    <g id="Page-1" stroke="none" stroke-width="1" fill="none" fill-rule="evenodd">
        <g id="Tablet" transform="translate(-318.000000, -51.000000)">
            <g id="Header-Logo" transform="translate(318.000000, 48.000000)">
                <g id="Header-logo">
                    <g id="Group" transform="translate(38.000000, 0.000000)" font-family="FuturaBT-Bold, Futura Md BT" font-size="18" font-weight="bold">
                        <text id="CARAVELO" letter-spacing="-0.24857156" fill="#233B44">
                            <tspan x="0" y="17">CARAVELO</tspan>
                        </text>
                        <text id="AIR" letter-spacing="-0.2485716" fill="#E21313">
                            <tspan x="2" y="36">AIR</tspan>
                        </text>
                    </g>
                    <g id="Group-2" transform="translate(0.000000, 5.000000)">
                        <circle id="Oval" fill="#E21313" cx="15.5" cy="15.5" r="15.5"></circle>
                        <circle id="Oval" fill="#E21313" cx="15.5" cy="15.5" r="15.5"></circle>
                        <text id="ion-paper-airplane---Ionicons" font-family="Ionicons" font-size="20" font-weight="400" fill="#FFFFFF">
                            <tspan x="6" y="23"></tspan>
                        </text>
                    </g>
                </g>
            </g>
        </g>
    </g>
</svg>